\contentsline {section}{\numberline {1}Introduction}{3}{section.1}% 
\contentsline {section}{\numberline {2}DQM-DC Tools}{3}{section.2}% 
\contentsline {subsubsection}{\numberline {2.0.1}Online DQM System}{4}{subsubsection.2.0.1}% 
\contentsline {section}{\numberline {3}Data Certification}{7}{section.3}% 
\contentsline {subsubsection}{\numberline {3.0.1}Certification of Cosmic Runs}{8}{subsubsection.3.0.1}% 
