\relax 
\providecommand\hyper@newdestlabel[2]{}
\providecommand\BKM@entry[2]{}
\providecommand\HyperFirstAtBeginDocument{\AtBeginDocument}
\HyperFirstAtBeginDocument{\ifx\hyper@anchor\@undefined
\global\let\oldcontentsline\contentsline
\gdef\contentsline#1#2#3#4{\oldcontentsline{#1}{#2}{#3}}
\global\let\oldnewlabel\newlabel
\gdef\newlabel#1#2{\newlabelxx{#1}#2}
\gdef\newlabelxx#1#2#3#4#5#6{\oldnewlabel{#1}{{#2}{#3}}}
\AtEndDocument{\ifx\hyper@anchor\@undefined
\let\contentsline\oldcontentsline
\let\newlabel\oldnewlabel
\fi}
\fi}
\global\let\hyper@last\relax 
\gdef\HyperFirstAtBeginDocument#1{#1}
\providecommand\HyField@AuxAddToFields[1]{}
\providecommand\HyField@AuxAddToCoFields[2]{}
\BKM@entry{id=1,dest={73656374696F6E2E31},srcline={1}}{496E74726F64756374696F6E}
\BKM@entry{id=2,dest={73656374696F6E2E32},srcline={1}}{44514D2D444320546F6F6C73}
\@writefile{toc}{\contentsline {section}{\numberline {1}Introduction}{3}{section.1}\protected@file@percent }
\newlabel{sec:Introduction}{{1}{3}{Introduction}{section.1}{}}
\@writefile{toc}{\contentsline {section}{\numberline {2}DQM-DC Tools}{3}{section.2}\protected@file@percent }
\citation{DQM_chart}
\citation{DQM_chart}
\BKM@entry{id=3,dest={73756273756273656374696F6E2E322E302E31},srcline={21}}{4F6E6C696E652044514D2053797374656D}
\@writefile{lof}{\contentsline {figure}{\numberline {1}{\ignorespaces \relax \fontsize  {10}{12}\selectfont  \abovedisplayskip 10\p@ plus2\p@ minus5\p@ \abovedisplayshortskip \z@ plus3\p@ \belowdisplayshortskip 6\p@ plus3\p@ minus3\p@ \def \leftmargin \leftmargini \parsep 5\p@ plus2.5\p@ minus\p@ \topsep 10\p@ plus4\p@ minus6\p@ \itemsep 5\p@ plus2.5\p@ minus\p@ {\leftmargin \leftmargini \topsep 6\p@ plus2\p@ minus2\p@ \parsep 3\p@ plus2\p@ minus\p@ \itemsep \parsep }\belowdisplayskip \abovedisplayskip Detailed view of the DQM systems.}}{4}{figure.caption.4}\protected@file@percent }
\providecommand*\caption@xref[2]{\@setref\relax\@undefined{#1}}
\newlabel{DQM_Fig}{{1}{4}{\footnotesize Detailed view of the DQM systems}{figure.caption.4}{}}
\@writefile{toc}{\contentsline {subsubsection}{\numberline {2.0.1}Online DQM System}{4}{subsubsection.2.0.1}\protected@file@percent }
\newlabel{Online DQM System}{{2.0.1}{4}{Online DQM System}{subsubsection.2.0.1}{}}
\citation{visuualization}
\citation{root}
\citation{WBM}
\@writefile{lof}{\contentsline {figure}{\numberline {2}{\ignorespaces \relax \fontsize  {10}{12}\selectfont  \abovedisplayskip 10\p@ plus2\p@ minus5\p@ \abovedisplayshortskip \z@ plus3\p@ \belowdisplayshortskip 6\p@ plus3\p@ minus3\p@ \def \leftmargin \leftmargini \parsep 5\p@ plus2.5\p@ minus\p@ \topsep 10\p@ plus4\p@ minus6\p@ \itemsep 5\p@ plus2.5\p@ minus\p@ {\leftmargin \leftmargini \topsep 6\p@ plus2\p@ minus2\p@ \parsep 3\p@ plus2\p@ minus\p@ \itemsep \parsep }\belowdisplayskip \abovedisplayskip Flow chart of data processing, visualization, and operation in Online and Offline DQM system.\relax }}{5}{figure.caption.5}\protected@file@percent }
\newlabel{DQM_processing}{{2}{5}{\footnotesize Flow chart of data processing, visualization, and operation in Online and Offline DQM system.\relax }{figure.caption.5}{}}
\citation{GUI}
\citation{GUI}
\BKM@entry{id=4,dest={73656374696F6E2E33},srcline={1}}{446174612043657274696669636174696F6E}
\citation{TOTEM}
\BKM@entry{id=5,dest={73756273756273656374696F6E2E332E302E31},srcline={5}}{43657274696669636174696F6E206F6620436F736D69632052756E73}
\@writefile{lof}{\contentsline {figure}{\numberline {3}{\ignorespaces \relax \fontsize  {10}{12}\selectfont  \abovedisplayskip 10\p@ plus2\p@ minus5\p@ \abovedisplayshortskip \z@ plus3\p@ \belowdisplayshortskip 6\p@ plus3\p@ minus3\p@ \def \leftmargin \leftmargini \parsep 5\p@ plus2.5\p@ minus\p@ \topsep 10\p@ plus4\p@ minus6\p@ \itemsep 5\p@ plus2.5\p@ minus\p@ {\leftmargin \leftmargini \topsep 6\p@ plus2\p@ minus2\p@ \parsep 3\p@ plus2\p@ minus\p@ \itemsep \parsep }\belowdisplayskip \abovedisplayskip Snapshot of the CMS DQM GUI used for the visualization of the data quality information.}}{7}{figure.caption.6}\protected@file@percent }
\newlabel{Fig}{{3}{7}{\footnotesize Snapshot of the CMS DQM GUI used for the visualization of the data quality information}{figure.caption.6}{}}
\@writefile{toc}{\contentsline {section}{\numberline {3}Data Certification}{7}{section.3}\protected@file@percent }
\@writefile{toc}{\contentsline {subsubsection}{\numberline {3.0.1}Certification of Cosmic Runs}{8}{subsubsection.3.0.1}\protected@file@percent }
\@writefile{lot}{\contentsline {table}{\numberline {1}{\ignorespaces \relax \fontsize  {10}{12}\selectfont  \abovedisplayskip 10\p@ plus2\p@ minus5\p@ \abovedisplayshortskip \z@ plus3\p@ \belowdisplayshortskip 6\p@ plus3\p@ minus3\p@ \def \leftmargin \leftmargini \parsep 5\p@ plus2.5\p@ minus\p@ \topsep 10\p@ plus4\p@ minus6\p@ \itemsep 5\p@ plus2.5\p@ minus\p@ {\leftmargin \leftmargini \topsep 6\p@ plus2\p@ minus2\p@ \parsep 3\p@ plus2\p@ minus\p@ \itemsep \parsep }\belowdisplayskip \abovedisplayskip Run-list for collision runs other than pp standard collisions, certified by the DC team in 2018.\relax }}{8}{table.caption.8}\protected@file@percent }
\newlabel{table:extra_runs}{{1}{8}{\footnotesize Run-list for collision runs other than pp standard collisions, certified by the DC team in 2018.\relax }{table.caption.8}{}}
\bibstyle{ieeetr}
\bibcite{GUI}{1}
\bibcite{PPD}{2}
\bibcite{run_control}{3}
\bibcite{PPD_chart}{4}
\bibcite{Tier0}{5}
\bibcite{Tier1}{6}
\bibcite{DQM_chart}{7}
\bibcite{visuualization}{8}
\bibcite{root}{9}
\bibcite{WBM}{10}
\bibcite{GUI}{11}
\bibcite{RR}{12}
\bibcite{DAQ}{13}
\bibcite{Craft_run}{14}
\bibcite{HLT}{15}
\bibcite{HLT_twiki}{16}
\bibcite{DAQ_HLT}{17}
\bibcite{NA61}{18}
\bibcite{SPS}{19}
\bibcite{Lumi_plots}{20}
\bibcite{Losses_1}{21}
\bibcite{Losses_2}{22}
\bibcite{Losses}{23}
\bibcite{Lumi_plots_2018}{24}
\bibcite{Losses_18}{25}
\bibcite{Losses_18_1}{26}
\bibcite{Losses_18_2}{27}
\bibcite{Lumi_run2}{28}
\newlabel{biblo:biblo}{{28}{11}{\refname }{section*.9}{}}
\@input{Appendix.aux}
\newlabel{chap:Appendix}{{3.0.1}{12}{Certification of Cosmic Runs}{section*.9}{}}
